<?xml version="1.0" standalone="no"?>
<!DOCTYPE svg PUBLIC "-//W3C//DTD SVG 20010904//EN"
 "http://www.w3.org/TR/2001/REC-SVG-20010904/DTD/svg10.dtd">
<svg version="1.0" xmlns="http://www.w3.org/2000/svg"
 width="466.000000pt" height="466.000000pt" viewBox="0 0 466.000000 466.000000"
 preserveAspectRatio="xMidYMid meet">
<metadata>
Created by potrace 1.11, written by Peter Selinger 2001-2013
</metadata>
<g transform="translate(0.000000,466.000000) scale(0.100000,-0.100000)"
fill="#000000" stroke="none">
<path d="M2871 4322 c-62 -86 -116 -162 -118 -169 -4 -10 9 -13 47 -13 l52 0
-7 -47 c-11 -77 -54 -201 -101 -294 -89 -177 -242 -344 -430 -468 -98 -65
-141 -86 -299 -147 -95 -37 -160 -80 -222 -147 -77 -84 -98 -145 -97 -282 0
-95 4 -119 27 -179 15 -38 26 -70 25 -71 -2 -1 -21 -11 -43 -21 -104 -48 -208
-208 -241 -374 -14 -71 -15 -110 -9 -235 5 -82 9 -196 10 -253 l1 -103 50 -33
c27 -18 61 -41 77 -51 l27 -17 22 48 c21 44 22 61 19 174 -2 69 -5 202 -5 295
l-1 170 31 65 c17 36 46 83 64 103 27 32 38 37 74 37 24 0 69 -9 101 -20 74
-26 165 -26 247 0 74 23 136 25 181 6 18 -7 64 -48 102 -91 39 -43 102 -99
141 -126 105 -70 130 -120 102 -200 -23 -68 -63 -111 -225 -239 -420 -335
-656 -636 -768 -979 l-34 -106 -54 2 -55 2 83 -185 c45 -101 84 -186 86 -188
2 -3 58 71 125 162 l120 167 -50 5 c-50 5 -51 6 -48 35 5 43 72 201 122 290
116 201 311 414 580 630 91 73 185 154 209 180 98 107 141 281 96 398 -5 11
-2 17 7 17 8 0 42 18 76 40 81 52 144 138 176 238 37 120 41 194 16 376 -21
154 -23 293 -6 342 6 17 -5 31 -59 79 -79 69 -88 68 -125 -21 -21 -51 -25 -74
-25 -174 0 -63 9 -171 19 -239 38 -251 -3 -394 -129 -452 -89 -41 -141 -22
-237 87 -74 84 -124 122 -197 144 -77 24 -158 25 -236 3 -33 -9 -82 -17 -110
-17 -48 -1 -50 0 -87 53 -52 74 -80 153 -82 226 -2 122 69 202 231 260 355
126 668 406 823 738 43 90 86 229 96 308 l7 52 57 -6 57 -5 -82 184 c-45 102
-84 186 -86 189 -3 2 -56 -66 -118 -153z m156 -208 c-3 -3 -12 -4 -19 -1 -8 3
-5 6 6 6 11 1 17 -2 13 -5z"/>
<path d="M2130 3910 c-367 -50 -675 -203 -935 -464 -190 -191 -306 -373 -389
-615 -67 -192 -80 -279 -80 -521 0 -184 3 -230 22 -316 46 -212 136 -424 255
-598 77 -113 245 -288 355 -371 79 -59 230 -152 235 -144 26 46 98 191 95 193
-2 1 -32 19 -66 39 -104 61 -204 141 -300 241 -342 358 -465 868 -327 1351 34
121 140 331 219 436 132 175 324 332 517 423 195 92 335 124 572 133 l168 6
38 56 c21 31 48 75 59 97 l21 42 -27 6 c-46 11 -363 15 -432 6z"/>
<path d="M3074 3611 l-51 -97 36 -21 c20 -11 65 -43 101 -69 431 -325 638
-866 530 -1393 -89 -440 -397 -818 -810 -997 -160 -70 -366 -114 -530 -114
l-86 0 -50 -77 c-65 -99 -77 -123 -69 -131 4 -4 91 -7 193 -7 155 1 206 5 297
23 657 136 1146 629 1277 1286 32 159 32 433 0 592 -65 324 -211 603 -437 830
-106 108 -211 192 -305 247 l-45 26 -51 -98z"/>
</g>
</svg>
